1	1/2
2	1
1	1/5	1/3
5	1	3
3	1/3	1
1	2	5
1/2	1	3
1/5	1/3	1
1	1	3	7
1	1	3	7
1/3	1/3	1	5
1/7	1/7	1/5	1
1	1/5	1/3	1/3
5	1	5	5
3	1/5	1	1
3	1/5	1	1
1	4	1/3	5	3	1/5
1/4	1	1/5	1	1/3	1/7
3	5	1	5	3	1/3
1/5	1	1/5	1	1/3	1/7
1/3	3	1/3	3	1	1/6
5	7	3	7	6	1
1	1/3	4	1	2
3	1	5	3	5
1/4	1/5	1	1/4	1/2
1	1/3	4	1	3
1/2	1/5	2	1/3	1
1	3	5	7
1/3	1	3	4
1/5	1/3	1	3
1/7	1/4	1/3	1
1	3	2
1/3	1	1/2
1/2	2	1

